^D:\LABIANLABS\ASSIGNMENT\PROJECT6\PROJECT6\DEBUG\SOURCE.OBJ
/OUT:"D:\LABIANLABS\ASSIGNMENT\PROJECT6\DEBUG\PROJECT6.EXE" /INCREMENTAL /NOLOGO KERNEL32.LIB USER32.LIB GDI32.LIB WINSPOOL.LIB COMDLG32.LIB ADVAPI32.LIB SHELL32.LIB OLE32.LIB OLEAUT32.LIB UUID.LIB ODBC32.LIB ODBCCP32.LIB /MANIFEST /MANIFESTUAC:"level='asInvoker' uiAccess='false'" /manifest:embed /DEBUG:FASTLINK /PDB:"D:\LABIANLABS\ASSIGNMENT\PROJECT6\DEBUG\PROJECT6.PDB" /TLBID:1 /DYNAMICBASE /NXCOMPAT /IMPLIB:"D:\LABIANLABS\ASSIGNMENT\PROJECT6\DEBUG\PROJECT6.LIB" /MACHINE:X86 DEBUG\SOURCE.OBJ
^D:\LABIANLABS\ASSIGNMENT\ASSIGNMENTC_C++\ASSIGNMENT5\PROJECT6\DEBUG\SOURCE.OBJ
/OUT:"D:\LABIANLABS\ASSIGNMENT\ASSIGNMENTC_C++\ASSIGNMENT5\DEBUG\PROJECT6.EXE" /INCREMENTAL /NOLOGO KERNEL32.LIB USER32.LIB GDI32.LIB WINSPOOL.LIB COMDLG32.LIB ADVAPI32.LIB SHELL32.LIB OLE32.LIB OLEAUT32.LIB UUID.LIB ODBC32.LIB ODBCCP32.LIB /MANIFEST /MANIFESTUAC:"level='asInvoker' uiAccess='false'" /manifest:embed /DEBUG:FASTLINK /PDB:"D:\LABIANLABS\ASSIGNMENT\ASSIGNMENTC_C++\ASSIGNMENT5\DEBUG\PROJECT6.PDB" /TLBID:1 /DYNAMICBASE /NXCOMPAT /IMPLIB:"D:\LABIANLABS\ASSIGNMENT\ASSIGNMENTC_C++\ASSIGNMENT5\DEBUG\PROJECT6.LIB" /MACHINE:X86 DEBUG\SOURCE.OBJ
