^D:\LABIANLABS\ASSIGNMENT\ASIGNMENT10\ASIGNMENT10\SOURCE.CPP
D:\LABIANLABS\ASSIGNMENT\ASIGNMENT10\ASIGNMENT10\DEBUG\VC141.PDB
D:\LABIANLABS\ASSIGNMENT\ASIGNMENT10\ASIGNMENT10\DEBUG\VC141.IDB
D:\LABIANLABS\ASSIGNMENT\ASIGNMENT10\ASIGNMENT10\DEBUG\SOURCE.OBJ
