^D:\LABIANLABS\ASSIGNMENT\ASSINGMENT11\ASSINGMENT11\SOURCE.CPP
C:\PROGRAM FILES (X86)\MICROSOFT VISUAL STUDIO\PREVIEW\COMMUNITY\VC\TOOLS\MSVC\14.15.26720\BIN\HOSTX86\X86\1033\CLUI.DLL
C:\WINDOWS\GLOBALIZATION\SORTING\SORTDEFAULT.NLS
C:\WINDOWS\SYSTEM32\TZRES.DLL
C:\PROGRAM FILES (X86)\WINDOWS KITS\10\INCLUDE\10.0.17134.0\UCRT\CONIO.H
C:\PROGRAM FILES (X86)\WINDOWS KITS\10\INCLUDE\10.0.17134.0\UCRT\CORECRT.H
C:\PROGRAM FILES (X86)\MICROSOFT VISUAL STUDIO\PREVIEW\COMMUNITY\VC\TOOLS\MSVC\14.15.26720\INCLUDE\VCRUNTIME.H
C:\PROGRAM FILES (X86)\MICROSOFT VISUAL STUDIO\PREVIEW\COMMUNITY\VC\TOOLS\MSVC\14.15.26720\INCLUDE\SAL.H
C:\PROGRAM FILES (X86)\MICROSOFT VISUAL STUDIO\PREVIEW\COMMUNITY\VC\TOOLS\MSVC\14.15.26720\INCLUDE\CONCURRENCYSAL.H
C:\PROGRAM FILES (X86)\MICROSOFT VISUAL STUDIO\PREVIEW\COMMUNITY\VC\TOOLS\MSVC\14.15.26720\INCLUDE\VADEFS.H
C:\PROGRAM FILES (X86)\WINDOWS KITS\10\INCLUDE\10.0.17134.0\UCRT\CORECRT_WCONIO.H
C:\PROGRAM FILES (X86)\WINDOWS KITS\10\INCLUDE\10.0.17134.0\UCRT\CORECRT_STDIO_CONFIG.H
C:\PROGRAM FILES (X86)\WINDOWS KITS\10\INCLUDE\10.0.17134.0\UCRT\STDIO.H
C:\PROGRAM FILES (X86)\WINDOWS KITS\10\INCLUDE\10.0.17134.0\UCRT\CORECRT_WSTDIO.H
C:\PROGRAM FILES (X86)\MICROSOFT VISUAL STUDIO\PREVIEW\COMMUNITY\VC\TOOLS\MSVC\14.15.26720\INCLUDE\IOSTREAM
C:\PROGRAM FILES (X86)\MICROSOFT VISUAL STUDIO\PREVIEW\COMMUNITY\VC\TOOLS\MSVC\14.15.26720\INCLUDE\ISTREAM
C:\PROGRAM FILES (X86)\MICROSOFT VISUAL STUDIO\PREVIEW\COMMUNITY\VC\TOOLS\MSVC\14.15.26720\INCLUDE\OSTREAM
C:\PROGRAM FILES (X86)\MICROSOFT VISUAL STUDIO\PREVIEW\COMMUNITY\VC\TOOLS\MSVC\14.15.26720\INCLUDE\IOS
C:\PROGRAM FILES (X86)\MICROSOFT VISUAL STUDIO\PREVIEW\COMMUNITY\VC\TOOLS\MSVC\14.15.26720\INCLUDE\XLOCNUM
C:\PROGRAM FILES (X86)\MICROSOFT VISUAL STUDIO\PREVIEW\COMMUNITY\VC\TOOLS\MSVC\14.15.26720\INCLUDE\CLIMITS
C:\PROGRAM FILES (X86)\MICROSOFT VISUAL STUDIO\PREVIEW\COMMUNITY\VC\TOOLS\MSVC\14.15.26720\INCLUDE\YVALS.H
C:\PROGRAM FILES (X86)\MICROSOFT VISUAL STUDIO\PREVIEW\COMMUNITY\VC\TOOLS\MSVC\14.15.26720\INCLUDE\YVALS_CORE.H
C:\PROGRAM FILES (X86)\MICROSOFT VISUAL STUDIO\PREVIEW\COMMUNITY\VC\TOOLS\MSVC\14.15.26720\INCLUDE\XKEYCHECK.H
C:\PROGRAM FILES (X86)\MICROSOFT VISUAL STUDIO\PREVIEW\COMMUNITY\VC\TOOLS\MSVC\14.15.26720\INCLUDE\CRTDEFS.H
C:\PROGRAM FILES (X86)\WINDOWS KITS\10\INCLUDE\10.0.17134.0\UCRT\CRTDBG.H
C:\PROGRAM FILES (X86)\MICROSOFT VISUAL STUDIO\PREVIEW\COMMUNITY\VC\TOOLS\MSVC\14.15.26720\INCLUDE\VCRUNTIME_NEW_DEBUG.H
C:\PROGRAM FILES (X86)\MICROSOFT VISUAL STUDIO\PREVIEW\COMMUNITY\VC\TOOLS\MSVC\14.15.26720\INCLUDE\VCRUNTIME_NEW.H
C:\PROGRAM FILES (X86)\MICROSOFT VISUAL STUDIO\PREVIEW\COMMUNITY\VC\TOOLS\MSVC\14.15.26720\INCLUDE\USE_ANSI.H
C:\PROGRAM FILES (X86)\MICROSOFT VISUAL STUDIO\PREVIEW\COMMUNITY\VC\TOOLS\MSVC\14.15.26720\INCLUDE\LIMITS.H
C:\PROGRAM FILES (X86)\MICROSOFT VISUAL STUDIO\PREVIEW\COMMUNITY\VC\TOOLS\MSVC\14.15.26720\INCLUDE\CMATH
C:\PROGRAM FILES (X86)\MICROSOFT VISUAL STUDIO\PREVIEW\COMMUNITY\VC\TOOLS\MSVC\14.15.26720\INCLUDE\CSTDLIB
C:\PROGRAM FILES (X86)\WINDOWS KITS\10\INCLUDE\10.0.17134.0\UCRT\STDLIB.H
C:\PROGRAM FILES (X86)\WINDOWS KITS\10\INCLUDE\10.0.17134.0\UCRT\CORECRT_MALLOC.H
C:\PROGRAM FILES (X86)\WINDOWS KITS\10\INCLUDE\10.0.17134.0\UCRT\CORECRT_SEARCH.H
C:\PROGRAM FILES (X86)\WINDOWS KITS\10\INCLUDE\10.0.17134.0\UCRT\STDDEF.H
C:\PROGRAM FILES (X86)\WINDOWS KITS\10\INCLUDE\10.0.17134.0\UCRT\CORECRT_WSTDLIB.H
C:\PROGRAM FILES (X86)\WINDOWS KITS\10\INCLUDE\10.0.17134.0\UCRT\MATH.H
C:\PROGRAM FILES (X86)\WINDOWS KITS\10\INCLUDE\10.0.17134.0\UCRT\CORECRT_MATH.H
C:\PROGRAM FILES (X86)\MICROSOFT VISUAL STUDIO\PREVIEW\COMMUNITY\VC\TOOLS\MSVC\14.15.26720\INCLUDE\XTGMATH.H
C:\PROGRAM FILES (X86)\MICROSOFT VISUAL STUDIO\PREVIEW\COMMUNITY\VC\TOOLS\MSVC\14.15.26720\INCLUDE\XTR1COMMON
C:\PROGRAM FILES (X86)\MICROSOFT VISUAL STUDIO\PREVIEW\COMMUNITY\VC\TOOLS\MSVC\14.15.26720\INCLUDE\CSTDIO
C:\PROGRAM FILES (X86)\MICROSOFT VISUAL STUDIO\PREVIEW\COMMUNITY\VC\TOOLS\MSVC\14.15.26720\INCLUDE\STREAMBUF
C:\PROGRAM FILES (X86)\MICROSOFT VISUAL STUDIO\PREVIEW\COMMUNITY\VC\TOOLS\MSVC\14.15.26720\INCLUDE\XIOSBASE
C:\PROGRAM FILES (X86)\MICROSOFT VISUAL STUDIO\PREVIEW\COMMUNITY\VC\TOOLS\MSVC\14.15.26720\INCLUDE\XLOCALE
C:\PROGRAM FILES (X86)\MICROSOFT VISUAL STUDIO\PREVIEW\COMMUNITY\VC\TOOLS\MSVC\14.15.26720\INCLUDE\CSTRING
C:\PROGRAM FILES (X86)\WINDOWS KITS\10\INCLUDE\10.0.17134.0\UCRT\STRING.H
C:\PROGRAM FILES (X86)\WINDOWS KITS\10\INCLUDE\10.0.17134.0\UCRT\CORECRT_MEMORY.H
C:\PROGRAM FILES (X86)\WINDOWS KITS\10\INCLUDE\10.0.17134.0\UCRT\CORECRT_MEMCPY_S.H
C:\PROGRAM FILES (X86)\WINDOWS KITS\10\INCLUDE\10.0.17134.0\UCRT\ERRNO.H
C:\PROGRAM FILES (X86)\MICROSOFT VISUAL STUDIO\PREVIEW\COMMUNITY\VC\TOOLS\MSVC\14.15.26720\INCLUDE\VCRUNTIME_STRING.H
C:\PROGRAM FILES (X86)\WINDOWS KITS\10\INCLUDE\10.0.17134.0\UCRT\CORECRT_WSTRING.H
C:\PROGRAM FILES (X86)\MICROSOFT VISUAL STUDIO\PREVIEW\COMMUNITY\VC\TOOLS\MSVC\14.15.26720\INCLUDE\STDEXCEPT
C:\PROGRAM FILES (X86)\MICROSOFT VISUAL STUDIO\PREVIEW\COMMUNITY\VC\TOOLS\MSVC\14.15.26720\INCLUDE\EXCEPTION
C:\PROGRAM FILES (X86)\MICROSOFT VISUAL STUDIO\PREVIEW\COMMUNITY\VC\TOOLS\MSVC\14.15.26720\INCLUDE\TYPE_TRAITS
C:\PROGRAM FILES (X86)\MICROSOFT VISUAL STUDIO\PREVIEW\COMMUNITY\VC\TOOLS\MSVC\14.15.26720\INCLUDE\XSTDDEF
C:\PROGRAM FILES (X86)\MICROSOFT VISUAL STUDIO\PREVIEW\COMMUNITY\VC\TOOLS\MSVC\14.15.26720\INCLUDE\CSTDDEF
C:\PROGRAM FILES (X86)\MICROSOFT VISUAL STUDIO\PREVIEW\COMMUNITY\VC\TOOLS\MSVC\14.15.26720\INCLUDE\INITIALIZER_LIST
C:\PROGRAM FILES (X86)\WINDOWS KITS\10\INCLUDE\10.0.17134.0\UCRT\MALLOC.H
C:\PROGRAM FILES (X86)\MICROSOFT VISUAL STUDIO\PREVIEW\COMMUNITY\VC\TOOLS\MSVC\14.15.26720\INCLUDE\VCRUNTIME_EXCEPTION.H
C:\PROGRAM FILES (X86)\MICROSOFT VISUAL STUDIO\PREVIEW\COMMUNITY\VC\TOOLS\MSVC\14.15.26720\INCLUDE\EH.H
C:\PROGRAM FILES (X86)\WINDOWS KITS\10\INCLUDE\10.0.17134.0\UCRT\CORECRT_TERMINATE.H
C:\PROGRAM FILES (X86)\MICROSOFT VISUAL STUDIO\PREVIEW\COMMUNITY\VC\TOOLS\MSVC\14.15.26720\INCLUDE\XSTRING
C:\PROGRAM FILES (X86)\MICROSOFT VISUAL STUDIO\PREVIEW\COMMUNITY\VC\TOOLS\MSVC\14.15.26720\INCLUDE\XMEMORY0
C:\PROGRAM FILES (X86)\MICROSOFT VISUAL STUDIO\PREVIEW\COMMUNITY\VC\TOOLS\MSVC\14.15.26720\INCLUDE\CSTDINT
C:\PROGRAM FILES (X86)\MICROSOFT VISUAL STUDIO\PREVIEW\COMMUNITY\VC\TOOLS\MSVC\14.15.26720\INCLUDE\STDINT.H
C:\PROGRAM FILES (X86)\MICROSOFT VISUAL STUDIO\PREVIEW\COMMUNITY\VC\TOOLS\MSVC\14.15.26720\INCLUDE\LIMITS
C:\PROGRAM FILES (X86)\MICROSOFT VISUAL STUDIO\PREVIEW\COMMUNITY\VC\TOOLS\MSVC\14.15.26720\INCLUDE\YMATH.H
C:\PROGRAM FILES (X86)\MICROSOFT VISUAL STUDIO\PREVIEW\COMMUNITY\VC\TOOLS\MSVC\14.15.26720\INCLUDE\CFLOAT
C:\PROGRAM FILES (X86)\WINDOWS KITS\10\INCLUDE\10.0.17134.0\UCRT\FLOAT.H
C:\PROGRAM FILES (X86)\MICROSOFT VISUAL STUDIO\PREVIEW\COMMUNITY\VC\TOOLS\MSVC\14.15.26720\INCLUDE\CWCHAR
C:\PROGRAM FILES (X86)\WINDOWS KITS\10\INCLUDE\10.0.17134.0\UCRT\WCHAR.H
C:\PROGRAM FILES (X86)\WINDOWS KITS\10\INCLUDE\10.0.17134.0\UCRT\CORECRT_WCTYPE.H
C:\PROGRAM FILES (X86)\WINDOWS KITS\10\INCLUDE\10.0.17134.0\UCRT\CORECRT_WDIRECT.H
C:\PROGRAM FILES (X86)\WINDOWS KITS\10\INCLUDE\10.0.17134.0\UCRT\CORECRT_WIO.H
C:\PROGRAM FILES (X86)\WINDOWS KITS\10\INCLUDE\10.0.17134.0\UCRT\CORECRT_SHARE.H
C:\PROGRAM FILES (X86)\WINDOWS KITS\10\INCLUDE\10.0.17134.0\UCRT\CORECRT_WPROCESS.H
C:\PROGRAM FILES (X86)\WINDOWS KITS\10\INCLUDE\10.0.17134.0\UCRT\CORECRT_WTIME.H
C:\PROGRAM FILES (X86)\WINDOWS KITS\10\INCLUDE\10.0.17134.0\UCRT\SYS\STAT.H
C:\PROGRAM FILES (X86)\WINDOWS KITS\10\INCLUDE\10.0.17134.0\UCRT\SYS\TYPES.H
C:\PROGRAM FILES (X86)\MICROSOFT VISUAL STUDIO\PREVIEW\COMMUNITY\VC\TOOLS\MSVC\14.15.26720\INCLUDE\NEW
C:\PROGRAM FILES (X86)\MICROSOFT VISUAL STUDIO\PREVIEW\COMMUNITY\VC\TOOLS\MSVC\14.15.26720\INCLUDE\XUTILITY
C:\PROGRAM FILES (X86)\MICROSOFT VISUAL STUDIO\PREVIEW\COMMUNITY\VC\TOOLS\MSVC\14.15.26720\INCLUDE\UTILITY
C:\PROGRAM FILES (X86)\MICROSOFT VISUAL STUDIO\PREVIEW\COMMUNITY\VC\TOOLS\MSVC\14.15.26720\INCLUDE\IOSFWD
C:\PROGRAM FILES (X86)\MICROSOFT VISUAL STUDIO\PREVIEW\COMMUNITY\VC\TOOLS\MSVC\14.15.26720\INCLUDE\XATOMIC0.H
C:\PROGRAM FILES (X86)\MICROSOFT VISUAL STUDIO\PREVIEW\COMMUNITY\VC\TOOLS\MSVC\14.15.26720\INCLUDE\INTRIN0.H
C:\PROGRAM FILES (X86)\MICROSOFT VISUAL STUDIO\PREVIEW\COMMUNITY\VC\TOOLS\MSVC\14.15.26720\INCLUDE\TYPEINFO
C:\PROGRAM FILES (X86)\MICROSOFT VISUAL STUDIO\PREVIEW\COMMUNITY\VC\TOOLS\MSVC\14.15.26720\INCLUDE\VCRUNTIME_TYPEINFO.H
C:\PROGRAM FILES (X86)\MICROSOFT VISUAL STUDIO\PREVIEW\COMMUNITY\VC\TOOLS\MSVC\14.15.26720\INCLUDE\XLOCINFO
C:\PROGRAM FILES (X86)\MICROSOFT VISUAL STUDIO\PREVIEW\COMMUNITY\VC\TOOLS\MSVC\14.15.26720\INCLUDE\XLOCINFO.H
C:\PROGRAM FILES (X86)\WINDOWS KITS\10\INCLUDE\10.0.17134.0\UCRT\CTYPE.H
C:\PROGRAM FILES (X86)\WINDOWS KITS\10\INCLUDE\10.0.17134.0\UCRT\LOCALE.H
C:\PROGRAM FILES (X86)\MICROSOFT VISUAL STUDIO\PREVIEW\COMMUNITY\VC\TOOLS\MSVC\14.15.26720\INCLUDE\MEMORY
C:\PROGRAM FILES (X86)\MICROSOFT VISUAL STUDIO\PREVIEW\COMMUNITY\VC\TOOLS\MSVC\14.15.26720\INCLUDE\XMEMORY
C:\PROGRAM FILES (X86)\MICROSOFT VISUAL STUDIO\PREVIEW\COMMUNITY\VC\TOOLS\MSVC\14.15.26720\INCLUDE\XFACET
C:\PROGRAM FILES (X86)\MICROSOFT VISUAL STUDIO\PREVIEW\COMMUNITY\VC\TOOLS\MSVC\14.15.26720\INCLUDE\SYSTEM_ERROR
C:\PROGRAM FILES (X86)\MICROSOFT VISUAL STUDIO\PREVIEW\COMMUNITY\VC\TOOLS\MSVC\14.15.26720\INCLUDE\CERRNO
C:\PROGRAM FILES (X86)\MICROSOFT VISUAL STUDIO\PREVIEW\COMMUNITY\VC\TOOLS\MSVC\14.15.26720\INCLUDE\XCALL_ONCE.H
C:\PROGRAM FILES (X86)\MICROSOFT VISUAL STUDIO\PREVIEW\COMMUNITY\VC\TOOLS\MSVC\14.15.26720\INCLUDE\XERRC.H
C:\PROGRAM FILES (X86)\WINDOWS KITS\10\INCLUDE\10.0.17134.0\UCRT\SHARE.H
